{"componentChunkName":"component---gatsby-theme-pitayan-src-templates-all-posts-index-tsx","path":"/posts/1/","result":{"data":{"allMdx":{"totalCount":9,"pageInfo":{"currentPage":1,"hasNextPage":true,"hasPreviousPage":false,"pageCount":2},"nodes":[{"id":"9a5dabf1-c768-535a-8697-c81f12698c52","timeToRead":9.41,"fields":{"slug":"/posts/styleguide"},"frontmatter":{"title":"The Style Guide for Gatsby-theme-pitayan","date":"April 6th, 2022","categories":["styleguide","design"],"hero":{"normal":{"gatsbyImageData":{"layout":"constrained","placeholder":{"fallback":"data:image/jpeg;base64,/9j/2wBDABALDA4MChAODQ4SERATGCgaGBYWGDEjJR0oOjM9PDkzODdASFxOQERXRTc4UG1RV19iZ2hnPk1xeXBkeFxlZ2P/2wBDARESEhgVGC8aGi9jQjhCY2NjY2NjY2NjY2NjY2NjY2NjY2NjY2NjY2NjY2NjY2NjY2NjY2NjY2NjY2NjY2NjY2P/wgARCAANABQDASIAAhEBAxEB/8QAFwAAAwEAAAAAAAAAAAAAAAAAAAMFAv/EABUBAQEAAAAAAAAAAAAAAAAAAAEC/9oADAMBAAIQAxAAAAGpmdSleJE//8QAGxABAAICAwAAAAAAAAAAAAAAAQACBBASEyH/2gAIAQEAAQUC5+Vu6x170CDP/8QAFBEBAAAAAAAAAAAAAAAAAAAAEP/aAAgBAwEBPwE//8QAFREBAQAAAAAAAAAAAAAAAAAAECH/2gAIAQIBAT8Bp//EABoQAAICAwAAAAAAAAAAAAAAAAAxARACESH/2gAIAQEABj8CnTO1ODYq/8QAGxABAAMAAwEAAAAAAAAAAAAAAQARIRAxQWH/2gAIAQEAAT8hegseRDkH43wZqjFstMTGf//aAAwDAQACAAMAAAAQ0P8A/8QAFREBAQAAAAAAAAAAAAAAAAAAMRD/2gAIAQMBAT8QGf/EABcRAQEBAQAAAAAAAAAAAAAAAAEAETH/2gAIAQIBAT8QR8YRNv/EABoQAQEBAQEBAQAAAAAAAAAAAAERACExQVH/2gAIAQEAAT8QlRnepSy3Rg588Go9NUuK3UOl/c2hH7e3LLDu/9k="},"images":{"fallback":{"src":"/static/19537fb214d67d6f2b800bdbc0d4be1c/39611/demo_1.jpg","srcSet":"/static/19537fb214d67d6f2b800bdbc0d4be1c/0f61a/demo_1.jpg 192w,\n/static/19537fb214d67d6f2b800bdbc0d4be1c/c83fc/demo_1.jpg 384w,\n/static/19537fb214d67d6f2b800bdbc0d4be1c/39611/demo_1.jpg 768w,\n/static/19537fb214d67d6f2b800bdbc0d4be1c/83638/demo_1.jpg 1536w","sizes":"(min-width: 768px) 768px, 100vw"},"sources":[]},"width":768,"height":512}}},"description":"This article will introduce the design style of the Gatsby blog"}},{"id":"757d4a22-febb-536b-a09b-ec7d69eaea0b","timeToRead":3.875,"fields":{"slug":"/posts/another-simple-post"},"frontmatter":{"title":"Another simple post","date":"April 6th, 2022","categories":["post","example"],"hero":{"normal":{"gatsbyImageData":{"layout":"constrained","placeholder":{"fallback":"data:image/jpeg;base64,/9j/2wBDABALDA4MChAODQ4SERATGCgaGBYWGDEjJR0oOjM9PDkzODdASFxOQERXRTc4UG1RV19iZ2hnPk1xeXBkeFxlZ2P/2wBDARESEhgVGC8aGi9jQjhCY2NjY2NjY2NjY2NjY2NjY2NjY2NjY2NjY2NjY2NjY2NjY2NjY2NjY2NjY2NjY2NjY2P/wgARCAANABQDASIAAhEBAxEB/8QAFwABAQEBAAAAAAAAAAAAAAAABAADBf/EABUBAQEAAAAAAAAAAAAAAAAAAAAB/9oADAMBAAIQAxAAAAHplUextpH/xAAcEAABAwUAAAAAAAAAAAAAAAACAAEDBBARITL/2gAIAQEAAQUCLYwRgTYtzUL/xAAUEQEAAAAAAAAAAAAAAAAAAAAQ/9oACAEDAQE/AT//xAAUEQEAAAAAAAAAAAAAAAAAAAAQ/9oACAECAQE/AT//xAAbEAABBAMAAAAAAAAAAAAAAAABABAhMQIRQv/aAAgBAQAGPwIhSJFqmx11Bb//xAAZEAEAAgMAAAAAAAAAAAAAAAABABEQIWH/2gAIAQEAAT8hHQKiDa1WgDRgNzgY/9oADAMBAAIAAwAAABA7H//EABQRAQAAAAAAAAAAAAAAAAAAABD/2gAIAQMBAT8QP//EABQRAQAAAAAAAAAAAAAAAAAAABD/2gAIAQIBAT8QP//EABsQAQACAwEBAAAAAAAAAAAAAAEAETFBYXGB/9oACAEBAAE/EO8UUlUwl8a6QOmBoAixsQ9jY/IguCf/2Q=="},"images":{"fallback":{"src":"/static/284693fca7dee4d7dd6aab36167cca55/39611/demo_1.jpg","srcSet":"/static/284693fca7dee4d7dd6aab36167cca55/0f61a/demo_1.jpg 192w,\n/static/284693fca7dee4d7dd6aab36167cca55/c83fc/demo_1.jpg 384w,\n/static/284693fca7dee4d7dd6aab36167cca55/39611/demo_1.jpg 768w,\n/static/284693fca7dee4d7dd6aab36167cca55/83638/demo_1.jpg 1536w","sizes":"(min-width: 768px) 768px, 100vw"},"sources":[]},"width":768,"height":512}}},"description":"This is a post page with only simple paragraphs"}},{"id":"339a987e-78fd-51b0-9117-40e7dc3b8dfe","timeToRead":2.18,"fields":{"slug":"/posts/a-simple-post-lorem-ipsum"},"frontmatter":{"title":"A Simple post lorem ipsum","date":"April 5th, 2022","categories":["sample","post"],"hero":{"normal":{"gatsbyImageData":{"layout":"constrained","placeholder":{"fallback":"data:image/jpeg;base64,/9j/2wBDABALDA4MChAODQ4SERATGCgaGBYWGDEjJR0oOjM9PDkzODdASFxOQERXRTc4UG1RV19iZ2hnPk1xeXBkeFxlZ2P/2wBDARESEhgVGC8aGi9jQjhCY2NjY2NjY2NjY2NjY2NjY2NjY2NjY2NjY2NjY2NjY2NjY2NjY2NjY2NjY2NjY2NjY2P/wgARCAAOABQDASIAAhEBAxEB/8QAFwABAQEBAAAAAAAAAAAAAAAAAAUBBv/EABUBAQEAAAAAAAAAAAAAAAAAAAEA/9oADAMBAAIQAxAAAAFvP0GqJAf/xAAdEAACAQQDAAAAAAAAAAAAAAABAgMABBARExQi/9oACAEBAAEFAmvU32UNcinEcPhgAf/EABYRAQEBAAAAAAAAAAAAAAAAAAEAEv/aAAgBAwEBPwELBf/EABYRAQEBAAAAAAAAAAAAAAAAAAABEf/aAAgBAgEBPwGtf//EABoQAAICAwAAAAAAAAAAAAAAAAABEBESITH/2gAIAQEABj8C0nHYyZR//8QAHRAAAgEEAwAAAAAAAAAAAAAAAREAECFBgVFhcf/aAAgBAQABPyGwHDkztDUATWjWsEryMZ6E/9oADAMBAAIAAwAAABCED//EABcRAQADAAAAAAAAAAAAAAAAAAEQESH/2gAIAQMBAT8QByoP/8QAFhEBAQEAAAAAAAAAAAAAAAAAABEh/9oACAECAQE/EMKf/8QAHhAAAgEEAwEAAAAAAAAAAAAAAREAMWGBkSFRcbH/2gAIAQEAAT8QOLxjeIBQybT7Ews3jgit0rpHnkLV4TEYI1ARuf/Z"},"images":{"fallback":{"src":"/static/bcd38b500c4244e87ef53950d596a325/8f8fc/demo_1.jpg","srcSet":"/static/bcd38b500c4244e87ef53950d596a325/c0a77/demo_1.jpg 192w,\n/static/bcd38b500c4244e87ef53950d596a325/0f050/demo_1.jpg 384w,\n/static/bcd38b500c4244e87ef53950d596a325/8f8fc/demo_1.jpg 768w,\n/static/bcd38b500c4244e87ef53950d596a325/bb4df/demo_1.jpg 1536w","sizes":"(min-width: 768px) 768px, 100vw"},"sources":[]},"width":768,"height":522}}},"description":"Exactly same to other demo pages, it only contains the \"Lorem Ipsum\" paragraphs."}},{"id":"76f83f71-f6c5-51f2-bc03-dcb9f2fedb15","timeToRead":2.515,"fields":{"slug":"/posts/a-post-with-source-code"},"frontmatter":{"title":"A post with source code","date":"April 4th, 2022","categories":["sample","post"],"hero":{"normal":{"gatsbyImageData":{"layout":"constrained","placeholder":{"fallback":"data:image/jpeg;base64,/9j/2wBDABALDA4MChAODQ4SERATGCgaGBYWGDEjJR0oOjM9PDkzODdASFxOQERXRTc4UG1RV19iZ2hnPk1xeXBkeFxlZ2P/2wBDARESEhgVGC8aGi9jQjhCY2NjY2NjY2NjY2NjY2NjY2NjY2NjY2NjY2NjY2NjY2NjY2NjY2NjY2NjY2NjY2NjY2P/wgARCAANABQDASIAAhEBAxEB/8QAFwABAQEBAAAAAAAAAAAAAAAAAAUCBP/EABUBAQEAAAAAAAAAAAAAAAAAAAEC/9oADAMBAAIQAxAAAAHpR9sV0cP/xAAZEAADAQEBAAAAAAAAAAAAAAAAAQIREBL/2gAIAQEAAQUC9QjYZs8RrP/EABcRAQADAAAAAAAAAAAAAAAAAAABERL/2gAIAQMBAT8BqGX/xAAVEQEBAAAAAAAAAAAAAAAAAAAAEf/aAAgBAgEBPwGq/8QAGBAAAwEBAAAAAAAAAAAAAAAAAAExIDL/2gAIAQEABj8C6RSrH//EABoQAAMAAwEAAAAAAAAAAAAAAAABIRFBkcH/2gAIAQEAAT8hmTgK3HokL2NlZVQ1bP/aAAwDAQACAAMAAAAQ9C//xAAXEQADAQAAAAAAAAAAAAAAAAAAAREh/9oACAEDAQE/EEzCD//EABcRAQEBAQAAAAAAAAAAAAAAAAEAESH/2gAIAQIBAT8QWdt3/8QAHRABAQEAAQUBAAAAAAAAAAAAAREAITFBUXGR4f/aAAgBAQABPxBlG9EjgUVPTQlztf1loODnxiEFA4bZk4D5v//Z"},"images":{"fallback":{"src":"/static/bc81cab7392a854fd1b0f4250ca46ac8/39611/demo_1.jpg","srcSet":"/static/bc81cab7392a854fd1b0f4250ca46ac8/0f61a/demo_1.jpg 192w,\n/static/bc81cab7392a854fd1b0f4250ca46ac8/c83fc/demo_1.jpg 384w,\n/static/bc81cab7392a854fd1b0f4250ca46ac8/39611/demo_1.jpg 768w,\n/static/bc81cab7392a854fd1b0f4250ca46ac8/659c6/demo_1.jpg 1536w","sizes":"(min-width: 768px) 768px, 100vw"},"sources":[]},"width":768,"height":512}}},"description":"This page contains some highlighted source code"}},{"id":"97d2901a-7195-5fe6-94f2-539505d68c70","timeToRead":2.335,"fields":{"slug":"/posts/embed-social-media"},"frontmatter":{"title":"Social media embeds","date":"April 3rd, 2022","categories":["sample","post"],"hero":{"normal":{"gatsbyImageData":{"layout":"constrained","placeholder":{"fallback":"data:image/jpeg;base64,/9j/2wBDABALDA4MChAODQ4SERATGCgaGBYWGDEjJR0oOjM9PDkzODdASFxOQERXRTc4UG1RV19iZ2hnPk1xeXBkeFxlZ2P/2wBDARESEhgVGC8aGi9jQjhCY2NjY2NjY2NjY2NjY2NjY2NjY2NjY2NjY2NjY2NjY2NjY2NjY2NjY2NjY2NjY2NjY2P/wgARCAANABQDASIAAhEBAxEB/8QAGAAAAgMAAAAAAAAAAAAAAAAAAAMCBAX/xAAVAQEBAAAAAAAAAAAAAAAAAAABAv/aAAwDAQACEAMQAAABryz3xSRYn//EABkQAAMBAQEAAAAAAAAAAAAAAAABAgMSEf/aAAgBAQABBQJcjxVFTy5tonahv1//xAAVEQEBAAAAAAAAAAAAAAAAAAAQEv/aAAgBAwEBPwGj/8QAFhEBAQEAAAAAAAAAAAAAAAAAABES/9oACAECAQE/Aco//8QAFxABAQEBAAAAAAAAAAAAAAAAACERAf/aAAgBAQAGPwKVWJ1na1//xAAaEAEAAwADAAAAAAAAAAAAAAABABExIUFR/9oACAEBAAE/IbEpY8ycoupZoJphEYQrLWf/2gAMAwEAAgADAAAAEP8A/wD/xAAWEQEBAQAAAAAAAAAAAAAAAAAAARH/2gAIAQMBAT8QtNf/xAAVEQEBAAAAAAAAAAAAAAAAAAABEP/aAAgBAgEBPxAh/8QAHBABAAMAAgMAAAAAAAAAAAAAAQARITFxQZGh/9oACAEBAAE/EAIYORi/kyGOjqAgq0XzEjprz1FmkBp4SPDejP/Z"},"images":{"fallback":{"src":"/static/cea6a05f6e7c32d3e366fb600f606bf0/39611/demo_1.jpg","srcSet":"/static/cea6a05f6e7c32d3e366fb600f606bf0/0f61a/demo_1.jpg 192w,\n/static/cea6a05f6e7c32d3e366fb600f606bf0/c83fc/demo_1.jpg 384w,\n/static/cea6a05f6e7c32d3e366fb600f606bf0/39611/demo_1.jpg 768w,\n/static/cea6a05f6e7c32d3e366fb600f606bf0/83638/demo_1.jpg 1536w","sizes":"(min-width: 768px) 768px, 100vw"},"sources":[]},"width":768,"height":512}}},"description":"Just a post page that displays demo components"}},{"id":"f544c966-2134-5a55-b5e4-b65a76daadda","timeToRead":2.215,"fields":{"slug":"/posts/some-pictures"},"frontmatter":{"title":"A post with some pictures","date":"April 2nd, 2022","categories":["sample","post"],"hero":{"normal":{"gatsbyImageData":{"layout":"constrained","placeholder":{"fallback":"data:image/jpeg;base64,/9j/2wBDABALDA4MChAODQ4SERATGCgaGBYWGDEjJR0oOjM9PDkzODdASFxOQERXRTc4UG1RV19iZ2hnPk1xeXBkeFxlZ2P/2wBDARESEhgVGC8aGi9jQjhCY2NjY2NjY2NjY2NjY2NjY2NjY2NjY2NjY2NjY2NjY2NjY2NjY2NjY2NjY2NjY2NjY2P/wgARCAANABQDASIAAhEBAxEB/8QAGAAAAwEBAAAAAAAAAAAAAAAAAAIDBAX/xAAVAQEBAAAAAAAAAAAAAAAAAAACAP/aAAwDAQACEAMQAAABaiWNwjUM/wD/xAAbEAACAgMBAAAAAAAAAAAAAAABAgAhAxESE//aAAgBAQABBQJVG/NTCl47hbmMb//EABURAQEAAAAAAAAAAAAAAAAAAAAR/9oACAEDAQE/Aar/xAAWEQEBAQAAAAAAAAAAAAAAAAABABH/2gAIAQIBAT8BR2y//8QAGxAAAwACAwAAAAAAAAAAAAAAAAERAhAhQXH/2gAIAQEABj8CjxTJHj4zspwtf//EABoQAAMAAwEAAAAAAAAAAAAAAAABERAhUUH/2gAIAQEAAT8hpI8u0JOKMEezkEarRyn/2gAMAwEAAgADAAAAEAPP/8QAFxEBAQEBAAAAAAAAAAAAAAAAAQARIf/aAAgBAwEBPxAActX/xAAXEQEBAQEAAAAAAAAAAAAAAAABABFB/9oACAECAQE/EHF5Zv/EABsQAQEAAgMBAAAAAAAAAAAAAAERADEhUWGR/9oACAEBAAE/EIwAgG/cRkhp5d6xhVXq+4xRVeC8TCHtDd4K2c//2Q=="},"images":{"fallback":{"src":"/static/27fa292c65b0123bb284fcd71ffc303b/39611/demo_1.jpg","srcSet":"/static/27fa292c65b0123bb284fcd71ffc303b/0f61a/demo_1.jpg 192w,\n/static/27fa292c65b0123bb284fcd71ffc303b/c83fc/demo_1.jpg 384w,\n/static/27fa292c65b0123bb284fcd71ffc303b/39611/demo_1.jpg 768w,\n/static/27fa292c65b0123bb284fcd71ffc303b/83638/demo_1.jpg 1536w","sizes":"(min-width: 768px) 768px, 100vw"},"sources":[]},"width":768,"height":512}}},"description":"Just a post page that displays demo components"}}]}},"pageContext":{"limit":6,"skip":0,"currentPage":1}},"staticQueryHashes":["176088207"],"slicesMap":{}}