{
    "componentChunkName": "component---gatsby-theme-pitayan-src-templates-all-posts-index-tsx",
    "path": "/posts",
    "result": {"data":{"allMdx":{"totalCount":9,"pageInfo":{"currentPage":1,"hasNextPage":true,"hasPreviousPage":false,"pageCount":2},"nodes":[{"id":"422a630c-d1ca-5e04-8e5a-76c410cc7582","timeToRead":2,"fields":{"slug":"/posts/another-simple-post"},"frontmatter":{"title":"Another simple post","date":"April 6th, 2022","categories":["post","example"],"hero":{"normal":{"gatsbyImageData":{"layout":"constrained","placeholder":{"fallback":"data:image/jpeg;base64,/9j/2wBDABALDA4MChAODQ4SERATGCgaGBYWGDEjJR0oOjM9PDkzODdASFxOQERXRTc4UG1RV19iZ2hnPk1xeXBkeFxlZ2P/2wBDARESEhgVGC8aGi9jQjhCY2NjY2NjY2NjY2NjY2NjY2NjY2NjY2NjY2NjY2NjY2NjY2NjY2NjY2NjY2NjY2NjY2P/wgARCAANABQDASIAAhEBAxEB/8QAFwABAQEBAAAAAAAAAAAAAAAABAACBf/EABUBAQEAAAAAAAAAAAAAAAAAAAAB/9oADAMBAAIQAxAAAAHpmSex1uP/xAAaEAACAgMAAAAAAAAAAAAAAAABAgADECEy/9oACAEBAAEFAm2KEUjHN8//xAAUEQEAAAAAAAAAAAAAAAAAAAAQ/9oACAEDAQE/AT//xAAUEQEAAAAAAAAAAAAAAAAAAAAQ/9oACAECAQE/AT//xAAaEAEAAgMBAAAAAAAAAAAAAAABECEAAiJB/9oACAEBAAY/AkyzonVPaY//xAAbEAADAAIDAAAAAAAAAAAAAAAAAREQMUFRYf/aAAgBAQABPyFPUUHRJrHTXGL3SEP/2gAMAwEAAgADAAAAEHvf/8QAFBEBAAAAAAAAAAAAAAAAAAAAEP/aAAgBAwEBPxA//8QAFBEBAAAAAAAAAAAAAAAAAAAAEP/aAAgBAgEBPxA//8QAGxABAAIDAQEAAAAAAAAAAAAAAQARMVGRIdH/2gAIAQEAAT8QtzDR6DKRa6ZWAA5FitYrY/Ii8HJ//9k="},"images":{"fallback":{"src":"/gatsby-theme-pitayan/static/284693fca7dee4d7dd6aab36167cca55/39611/demo_1.jpg","srcSet":"/gatsby-theme-pitayan/static/284693fca7dee4d7dd6aab36167cca55/0f61a/demo_1.jpg 192w,\n/gatsby-theme-pitayan/static/284693fca7dee4d7dd6aab36167cca55/c83fc/demo_1.jpg 384w,\n/gatsby-theme-pitayan/static/284693fca7dee4d7dd6aab36167cca55/39611/demo_1.jpg 768w,\n/gatsby-theme-pitayan/static/284693fca7dee4d7dd6aab36167cca55/83638/demo_1.jpg 1536w","sizes":"(min-width: 768px) 768px, 100vw"},"sources":[]},"width":768,"height":512}}},"description":"This is a post page with only simple paragraphs"}},{"id":"6e6b7c04-122f-5eb9-b95a-96750770cfdb","timeToRead":1,"fields":{"slug":"/posts/styleguide"},"frontmatter":{"title":"The Style Guide for Gatsby-theme-pitayan","date":"April 6th, 2022","categories":["styleguide","design"],"hero":{"normal":{"gatsbyImageData":{"layout":"constrained","placeholder":{"fallback":"data:image/jpeg;base64,/9j/2wBDABALDA4MChAODQ4SERATGCgaGBYWGDEjJR0oOjM9PDkzODdASFxOQERXRTc4UG1RV19iZ2hnPk1xeXBkeFxlZ2P/2wBDARESEhgVGC8aGi9jQjhCY2NjY2NjY2NjY2NjY2NjY2NjY2NjY2NjY2NjY2NjY2NjY2NjY2NjY2NjY2NjY2NjY2P/wgARCAANABQDASIAAhEBAxEB/8QAFwAAAwEAAAAAAAAAAAAAAAAAAAMFAv/EABUBAQEAAAAAAAAAAAAAAAAAAAEC/9oADAMBAAIQAxAAAAGnmbVlcJE//8QAGxAAAQQDAAAAAAAAAAAAAAAAAQACBCEQERL/2gAIAQEAAQUC7QecRzqSaQNf/8QAFBEBAAAAAAAAAAAAAAAAAAAAEP/aAAgBAwEBPwE//8QAFREBAQAAAAAAAAAAAAAAAAAAECH/2gAIAQIBAT8Bp//EABsQAAEEAwAAAAAAAAAAAAAAAAEAEBEhAzFB/9oACAEBAAY/AjG1cMcfLf8A/8QAGhABAAMAAwAAAAAAAAAAAAAAAQARIRBRYf/aAAgBAQABPyFwDZ7lynbzh91CNhCoEWP/2gAMAwEAAgADAAAAEMA//8QAFREBAQAAAAAAAAAAAAAAAAAAECH/2gAIAQMBAT8Qh//EABcRAQEBAQAAAAAAAAAAAAAAAAEAETH/2gAIAQIBAT8QRcYdNv/EABoQAQEBAQEBAQAAAAAAAAAAAAERACExUZH/2gAIAQEAAT8QRMQsUJZr0Q9Gw/cIlMAkIq7PQ3CCL5nB+7//2Q=="},"images":{"fallback":{"src":"/gatsby-theme-pitayan/static/19537fb214d67d6f2b800bdbc0d4be1c/39611/demo_1.jpg","srcSet":"/gatsby-theme-pitayan/static/19537fb214d67d6f2b800bdbc0d4be1c/0f61a/demo_1.jpg 192w,\n/gatsby-theme-pitayan/static/19537fb214d67d6f2b800bdbc0d4be1c/c83fc/demo_1.jpg 384w,\n/gatsby-theme-pitayan/static/19537fb214d67d6f2b800bdbc0d4be1c/39611/demo_1.jpg 768w,\n/gatsby-theme-pitayan/static/19537fb214d67d6f2b800bdbc0d4be1c/83638/demo_1.jpg 1536w","sizes":"(min-width: 768px) 768px, 100vw"},"sources":[]},"width":768,"height":512}}},"description":"This article will introduce the design style of the Gatsby blog"}},{"id":"d04bc135-5e6c-5d56-94ef-141442883e16","timeToRead":2,"fields":{"slug":"/posts/a-simple-post-lorem-ipsum"},"frontmatter":{"title":"A Simple post lorem ipsum","date":"April 5th, 2022","categories":["sample","post"],"hero":{"normal":{"gatsbyImageData":{"layout":"constrained","placeholder":{"fallback":"data:image/jpeg;base64,/9j/2wBDABALDA4MChAODQ4SERATGCgaGBYWGDEjJR0oOjM9PDkzODdASFxOQERXRTc4UG1RV19iZ2hnPk1xeXBkeFxlZ2P/2wBDARESEhgVGC8aGi9jQjhCY2NjY2NjY2NjY2NjY2NjY2NjY2NjY2NjY2NjY2NjY2NjY2NjY2NjY2NjY2NjY2NjY2P/wgARCAAOABQDASIAAhEBAxEB/8QAFQABAQAAAAAAAAAAAAAAAAAAAAX/xAAVAQEBAAAAAAAAAAAAAAAAAAABAP/aAAwDAQACEAMQAAABIFFqSSH/xAAdEAABAwUBAAAAAAAAAAAAAAACAQMRAAQQExQi/9oACAEBAAEFAivRnpBa2AuG2fBQK//EABYRAQEBAAAAAAAAAAAAAAAAAAEAEv/aAAgBAwEBPwELBf/EABYRAQEBAAAAAAAAAAAAAAAAAAABEf/aAAgBAgEBPwGtf//EABsQAAIBBQAAAAAAAAAAAAAAAAABEBESITFR/9oACAEBAAY/AsKNxc+FD//EAB0QAAICAQUAAAAAAAAAAAAAAAERACGBEDFRYXH/2gAIAQEAAT8hpjkcmd4YgEa6bqdivIDJ4E//2gAMAwEAAgADAAAAEEcP/8QAFxEBAAMAAAAAAAAAAAAAAAAAARARIf/aAAgBAwEBPxAHKh//xAAWEQEBAQAAAAAAAAAAAAAAAAAAESH/2gAIAQIBAT8Qwp//xAAfEAEBAAEDBQEAAAAAAAAAAAABEQBBUYEhMWFxkbH/2gAIAQEAAT8QSt3eXjApVtdH7kAn7y4a+zEbReepPnnGiVBINHnP/9k="},"images":{"fallback":{"src":"/gatsby-theme-pitayan/static/bcd38b500c4244e87ef53950d596a325/8f8fc/demo_1.jpg","srcSet":"/gatsby-theme-pitayan/static/bcd38b500c4244e87ef53950d596a325/c0a77/demo_1.jpg 192w,\n/gatsby-theme-pitayan/static/bcd38b500c4244e87ef53950d596a325/0f050/demo_1.jpg 384w,\n/gatsby-theme-pitayan/static/bcd38b500c4244e87ef53950d596a325/8f8fc/demo_1.jpg 768w,\n/gatsby-theme-pitayan/static/bcd38b500c4244e87ef53950d596a325/bb4df/demo_1.jpg 1536w","sizes":"(min-width: 768px) 768px, 100vw"},"sources":[]},"width":768,"height":522}}},"description":"Exactly same to other demo pages, it only contains the \"Lorem Ipsum\" paragraphs."}},{"id":"f5fb5530-f95e-58ad-b5bd-e87877698013","timeToRead":2,"fields":{"slug":"/posts/a-post-with-source-code"},"frontmatter":{"title":"A post with source code","date":"April 4th, 2022","categories":["sample","post"],"hero":{"normal":{"gatsbyImageData":{"layout":"constrained","placeholder":{"fallback":"data:image/jpeg;base64,/9j/2wBDABALDA4MChAODQ4SERATGCgaGBYWGDEjJR0oOjM9PDkzODdASFxOQERXRTc4UG1RV19iZ2hnPk1xeXBkeFxlZ2P/2wBDARESEhgVGC8aGi9jQjhCY2NjY2NjY2NjY2NjY2NjY2NjY2NjY2NjY2NjY2NjY2NjY2NjY2NjY2NjY2NjY2NjY2P/wgARCAANABQDASIAAhEBAxEB/8QAGAAAAgMAAAAAAAAAAAAAAAAAAAUBAgP/xAAVAQEBAAAAAAAAAAAAAAAAAAABAv/aAAwDAQACEAMQAAAB3lRdhqKAf//EABsQAAICAwEAAAAAAAAAAAAAAAABAhIDEBMh/9oACAEBAAEFAuuNF4MtDS9G2j//xAAWEQEBAQAAAAAAAAAAAAAAAAAAESH/2gAIAQMBAT8BxH//xAAVEQEBAAAAAAAAAAAAAAAAAAAAEf/aAAgBAgEBPwGq/8QAGBAAAwEBAAAAAAAAAAAAAAAAABAxETL/2gAIAQEABj8C6KVYv//EABoQAAIDAQEAAAAAAAAAAAAAAAABESFBMVH/2gAIAQEAAT8hdDHgr4SskyQandGHT//aAAwDAQACAAMAAAAQhy//xAAXEQEBAQEAAAAAAAAAAAAAAAABABEh/9oACAEDAQE/EAXLJf/EABcRAQEBAQAAAAAAAAAAAAAAAAEAESH/2gAIAQIBAT8QUdt3/8QAGhABAAMBAQEAAAAAAAAAAAAAAQARITFBUf/aAAgBAQABPxCk18UWEqAnrcGyt3S5ZF/ZU5OAPIYB8uf/2Q=="},"images":{"fallback":{"src":"/gatsby-theme-pitayan/static/bc81cab7392a854fd1b0f4250ca46ac8/39611/demo_1.jpg","srcSet":"/gatsby-theme-pitayan/static/bc81cab7392a854fd1b0f4250ca46ac8/0f61a/demo_1.jpg 192w,\n/gatsby-theme-pitayan/static/bc81cab7392a854fd1b0f4250ca46ac8/c83fc/demo_1.jpg 384w,\n/gatsby-theme-pitayan/static/bc81cab7392a854fd1b0f4250ca46ac8/39611/demo_1.jpg 768w,\n/gatsby-theme-pitayan/static/bc81cab7392a854fd1b0f4250ca46ac8/659c6/demo_1.jpg 1536w","sizes":"(min-width: 768px) 768px, 100vw"},"sources":[]},"width":768,"height":512}}},"description":"This page contains some highlighted source code"}},{"id":"8958640c-a331-5e0d-86f8-43eed50791d8","timeToRead":2,"fields":{"slug":"/posts/embed-social-media"},"frontmatter":{"title":"Social media embeds","date":"April 3rd, 2022","categories":["sample","post"],"hero":{"normal":{"gatsbyImageData":{"layout":"constrained","placeholder":{"fallback":"data:image/jpeg;base64,/9j/2wBDABALDA4MChAODQ4SERATGCgaGBYWGDEjJR0oOjM9PDkzODdASFxOQERXRTc4UG1RV19iZ2hnPk1xeXBkeFxlZ2P/2wBDARESEhgVGC8aGi9jQjhCY2NjY2NjY2NjY2NjY2NjY2NjY2NjY2NjY2NjY2NjY2NjY2NjY2NjY2NjY2NjY2NjY2P/wgARCAANABQDASIAAhEBAxEB/8QAFwABAQEBAAAAAAAAAAAAAAAABAABAv/EABUBAQEAAAAAAAAAAAAAAAAAAAEC/9oADAMBAAIQAxAAAAE+hRFHuJP/xAAaEAADAAMBAAAAAAAAAAAAAAAAAQIDERIi/9oACAEBAAEFAvI8PQ55c3SJzNje3//EABURAQEAAAAAAAAAAAAAAAAAABAS/9oACAEDAQE/AaP/xAAVEQEBAAAAAAAAAAAAAAAAAAAQEf/aAAgBAgEBPwGH/8QAGBAAAwEBAAAAAAAAAAAAAAAAAAERECH/2gAIAQEABj8CyQ4yMrP/xAAaEAEAAwADAAAAAAAAAAAAAAABABExIVGx/9oACAEBAAE/IQuBS9E3KHEJFHkkaoGjY7aT/9oADAMBAAIAAwAAABA0P//EABYRAQEBAAAAAAAAAAAAAAAAAAARAf/aAAgBAwEBPxDaV//EABYRAQEBAAAAAAAAAAAAAAAAAAARAf/aAAgBAgEBPxDJR//EAB0QAQACAQUBAAAAAAAAAAAAAAEAIVERMUFhodH/2gAIAQEAAT8QUGLsPkG6CgYhklOczdQMrJbsGgqX8Lyf/9k="},"images":{"fallback":{"src":"/gatsby-theme-pitayan/static/cea6a05f6e7c32d3e366fb600f606bf0/39611/demo_1.jpg","srcSet":"/gatsby-theme-pitayan/static/cea6a05f6e7c32d3e366fb600f606bf0/0f61a/demo_1.jpg 192w,\n/gatsby-theme-pitayan/static/cea6a05f6e7c32d3e366fb600f606bf0/c83fc/demo_1.jpg 384w,\n/gatsby-theme-pitayan/static/cea6a05f6e7c32d3e366fb600f606bf0/39611/demo_1.jpg 768w,\n/gatsby-theme-pitayan/static/cea6a05f6e7c32d3e366fb600f606bf0/83638/demo_1.jpg 1536w","sizes":"(min-width: 768px) 768px, 100vw"},"sources":[]},"width":768,"height":512}}},"description":"Just a post page that displays demo components"}},{"id":"38b2e919-a920-58aa-9440-a9bc210a2e5e","timeToRead":2,"fields":{"slug":"/posts/some-pictures"},"frontmatter":{"title":"A post with some pictures","date":"April 2nd, 2022","categories":["sample","post"],"hero":{"normal":{"gatsbyImageData":{"layout":"constrained","placeholder":{"fallback":"data:image/jpeg;base64,/9j/2wBDABALDA4MChAODQ4SERATGCgaGBYWGDEjJR0oOjM9PDkzODdASFxOQERXRTc4UG1RV19iZ2hnPk1xeXBkeFxlZ2P/2wBDARESEhgVGC8aGi9jQjhCY2NjY2NjY2NjY2NjY2NjY2NjY2NjY2NjY2NjY2NjY2NjY2NjY2NjY2NjY2NjY2NjY2P/wgARCAANABQDASIAAhEBAxEB/8QAGAAAAgMAAAAAAAAAAAAAAAAAAAMBBAX/xAAWAQEBAQAAAAAAAAAAAAAAAAACAAP/2gAMAwEAAhADEAAAARsOFgls0P8A/8QAHBAAAgICAwAAAAAAAAAAAAAAAQIAEQMSEyEx/9oACAEBAAEFAlRb41IKm8fcJ0je/wD/xAAVEQEBAAAAAAAAAAAAAAAAAAAAEf/aAAgBAwEBPwGq/8QAFhEBAQEAAAAAAAAAAAAAAAAAAQAR/9oACAECAQE/AUdsv//EABsQAAICAwEAAAAAAAAAAAAAAAABAhEQEiEx/9oACAEBAAY/AqcUyltE9ZZxY//EABoQAAIDAQEAAAAAAAAAAAAAAAERACFREGH/2gAIAQEAAT8hZURwMNuHkFzYoANPYr0J/9oADAMBAAIAAwAAABDP3//EABcRAQEBAQAAAAAAAAAAAAAAAAEAESH/2gAIAQMBAT8QAHLV/8QAFxEBAQEBAAAAAAAAAAAAAAAAAQARQf/aAAgBAgEBPxBxeWb/xAAbEAEAAwEAAwAAAAAAAAAAAAABABEhMUGBkf/aAAgBAQABPxBYODxS/IpADC0vvmXlq277h2ncCV476WEpX//Z"},"images":{"fallback":{"src":"/gatsby-theme-pitayan/static/27fa292c65b0123bb284fcd71ffc303b/39611/demo_1.jpg","srcSet":"/gatsby-theme-pitayan/static/27fa292c65b0123bb284fcd71ffc303b/0f61a/demo_1.jpg 192w,\n/gatsby-theme-pitayan/static/27fa292c65b0123bb284fcd71ffc303b/c83fc/demo_1.jpg 384w,\n/gatsby-theme-pitayan/static/27fa292c65b0123bb284fcd71ffc303b/39611/demo_1.jpg 768w,\n/gatsby-theme-pitayan/static/27fa292c65b0123bb284fcd71ffc303b/83638/demo_1.jpg 1536w","sizes":"(min-width: 768px) 768px, 100vw"},"sources":[]},"width":768,"height":512}}},"description":"Just a post page that displays demo components"}}]}},"pageContext":{"limit":6,"skip":0,"currentPage":1}},
    "staticQueryHashes": ["176088207"]}