{
    "componentChunkName": "component---gatsby-theme-pitayan-src-templates-category-posts-index-tsx",
    "path": "/categories/post/4",
    "result": {"data":{"allMdx":{"totalCount":8,"pageInfo":{"currentPage":4,"hasNextPage":false,"hasPreviousPage":true,"pageCount":2},"nodes":[]}},"pageContext":{"category":"post","limit":6,"skip":18,"currentPage":4}},
    "staticQueryHashes": ["176088207"]}