{
    "componentChunkName": "component---gatsby-theme-pitayan-src-templates-category-posts-index-tsx",
    "path": "/categories/post/3",
    "result": {"data":{"allMdx":{"totalCount":8,"pageInfo":{"currentPage":3,"hasNextPage":false,"hasPreviousPage":true,"pageCount":2},"nodes":[]}},"pageContext":{"category":"post","limit":6,"skip":12,"currentPage":3}},
    "staticQueryHashes": ["176088207"]}