{"componentChunkName":"component---gatsby-theme-pitayan-src-templates-category-posts-index-tsx","path":"/categories/post/9/","result":{"data":{"allMdx":{"totalCount":9,"pageInfo":{"currentPage":9,"hasNextPage":false,"hasPreviousPage":true,"pageCount":2},"nodes":[]}},"pageContext":{"category":"post","limit":6,"skip":48,"currentPage":9}},"staticQueryHashes":["176088207"],"slicesMap":{}}