{
    "componentChunkName": "component---gatsby-theme-pitayan-src-templates-category-posts-index-tsx",
    "path": "/categories/post/5",
    "result": {"data":{"allMdx":{"totalCount":8,"pageInfo":{"currentPage":5,"hasNextPage":false,"hasPreviousPage":true,"pageCount":2},"nodes":[]}},"pageContext":{"category":"post","limit":6,"skip":24,"currentPage":5}},
    "staticQueryHashes": ["176088207"]}