{
    "componentChunkName": "component---gatsby-theme-pitayan-src-templates-category-posts-index-tsx",
    "path": "/categories/post/2",
    "result": {"data":{"allMdx":{"totalCount":8,"pageInfo":{"currentPage":2,"hasNextPage":false,"hasPreviousPage":true,"pageCount":2},"nodes":[{"id":"dc7b3367-1156-50a6-96a9-17c3ec3e72cb","timeToRead":1,"fields":{"slug":"/posts/gatsby-plugin-options"},"frontmatter":{"title":"The gatsby plugin options","categories":["sample","post"],"date":"March 31st, 2022","hero":{"normal":{"gatsbyImageData":{"layout":"constrained","placeholder":{"fallback":"data:image/jpeg;base64,/9j/2wBDABALDA4MChAODQ4SERATGCgaGBYWGDEjJR0oOjM9PDkzODdASFxOQERXRTc4UG1RV19iZ2hnPk1xeXBkeFxlZ2P/2wBDARESEhgVGC8aGi9jQjhCY2NjY2NjY2NjY2NjY2NjY2NjY2NjY2NjY2NjY2NjY2NjY2NjY2NjY2NjY2NjY2NjY2P/wgARCAAPABQDASIAAhEBAxEB/8QAFgABAQEAAAAAAAAAAAAAAAAABAAC/8QAFgEBAQEAAAAAAAAAAAAAAAAAAgAB/9oADAMBAAIQAxAAAAEUhGQbUV//xAAaEAACAwEBAAAAAAAAAAAAAAABAgADEgQh/9oACAEBAAEFAsmBGhHtNwCjoEus2/8A/8QAFREBAQAAAAAAAAAAAAAAAAAAEBH/2gAIAQMBAT8Bh//EABURAQEAAAAAAAAAAAAAAAAAABAR/9oACAECAQE/Aaf/xAAbEAADAAIDAAAAAAAAAAAAAAAAARECkRASMf/aAAgBAQAGPwL1F465TQ6tFR//xAAZEAEAAwEBAAAAAAAAAAAAAAABABFRIWH/2gAIAQEAAT8hahKGF0eSvEoRTW0OBO4g1Scrs//aAAwDAQACAAMAAAAQD/8A/8QAFhEBAQEAAAAAAAAAAAAAAAAAAREA/9oACAEDAQE/ECGmu//EABYRAQEBAAAAAAAAAAAAAAAAAAERAP/aAAgBAgEBPxBojpv/xAAbEAEBAQADAQEAAAAAAAAAAAABEQAhMVFBYf/aAAgBAQABPxCSDkL355kihvC8YkEfwkxpM1KdfmC2GQIIaDBMdt//2Q=="},"images":{"fallback":{"src":"/static/181debee0236f68b9d33f44578e89fc3/0347b/demo_1.jpg","srcSet":"/static/181debee0236f68b9d33f44578e89fc3/920c4/demo_1.jpg 192w,\n/static/181debee0236f68b9d33f44578e89fc3/ca013/demo_1.jpg 384w,\n/static/181debee0236f68b9d33f44578e89fc3/0347b/demo_1.jpg 768w,\n/static/181debee0236f68b9d33f44578e89fc3/b489f/demo_1.jpg 1536w","sizes":"(min-width: 768px) 768px, 100vw"},"sources":[]},"width":768,"height":594}}},"description":"Just a post page that displays demo components"}},{"id":"f6243046-3536-5cfe-8107-3d70267befa3","timeToRead":2,"fields":{"slug":"/posts/quick-start"},"frontmatter":{"title":"Quick start with @pitayan/gatsby-theme-pitayan plugin","categories":["sample","post"],"date":"March 30th, 2022","hero":{"normal":{"gatsbyImageData":{"layout":"constrained","placeholder":{"fallback":"data:image/jpeg;base64,/9j/2wBDABALDA4MChAODQ4SERATGCgaGBYWGDEjJR0oOjM9PDkzODdASFxOQERXRTc4UG1RV19iZ2hnPk1xeXBkeFxlZ2P/2wBDARESEhgVGC8aGi9jQjhCY2NjY2NjY2NjY2NjY2NjY2NjY2NjY2NjY2NjY2NjY2NjY2NjY2NjY2NjY2NjY2NjY2P/wgARCAAOABQDASIAAhEBAxEB/8QAFgABAQEAAAAAAAAAAAAAAAAABAAD/8QAFAEBAAAAAAAAAAAAAAAAAAAAAP/aAAwDAQACEAMQAAABHoJ4ONH/xAAZEAADAQEBAAAAAAAAAAAAAAABAgMAIhP/2gAIAQEAAQUCl2EVc0OpU886ByKMN//EABQRAQAAAAAAAAAAAAAAAAAAABD/2gAIAQMBAT8BP//EABQRAQAAAAAAAAAAAAAAAAAAABD/2gAIAQIBAT8BP//EABoQAAMBAQEBAAAAAAAAAAAAAAABEQIxIlH/2gAIAQEABj8ClhrGm+Hl1FHO/WdP/8QAGxABAAMBAAMAAAAAAAAAAAAAAQARIUFRcaH/2gAIAQEAAT8hKorPsK+WUytmoYO1GeLvk90KkCoj/9oADAMBAAIAAwAAABCTz//EABQRAQAAAAAAAAAAAAAAAAAAABD/2gAIAQMBAT8QP//EABQRAQAAAAAAAAAAAAAAAAAAABD/2gAIAQIBAT8QP//EABsQAQADAQADAAAAAAAAAAAAAAEAESFRQWGR/9oACAEBAAE/ELe5F4qyCyIwAk+A64EcV9Vib9lZ04s4PYrFX0XrJY2HCf/Z"},"images":{"fallback":{"src":"/static/d7f82421ce510232bd39970c36da2c8b/c0189/demo_1.jpg","srcSet":"/static/d7f82421ce510232bd39970c36da2c8b/76ff7/demo_1.jpg 192w,\n/static/d7f82421ce510232bd39970c36da2c8b/4e23f/demo_1.jpg 384w,\n/static/d7f82421ce510232bd39970c36da2c8b/c0189/demo_1.jpg 768w,\n/static/d7f82421ce510232bd39970c36da2c8b/d833b/demo_1.jpg 1536w","sizes":"(min-width: 768px) 768px, 100vw"},"sources":[]},"width":768,"height":553}}},"description":"Learn to know how you could start a new Gatsby blog with this plugin"}}]}},"pageContext":{"category":"post","limit":6,"skip":6,"currentPage":2}},
    "staticQueryHashes": ["176088207"]}